<?xml version="1.0" encoding="utf-8" standalone="no"?>
<!DOCTYPE svg PUBLIC "-//W3C//DTD SVG 1.1//EN"
  "http://www.w3.org/Graphics/SVG/1.1/DTD/svg11.dtd">
<!-- Created with matplotlib (http://matplotlib.org/) -->
<svg height="715pt" version="1.1" viewBox="0 0 909 715" width="909pt" xmlns="http://www.w3.org/2000/svg" xmlns:xlink="http://www.w3.org/1999/xlink">
 <defs>
  <style type="text/css">
*{stroke-linecap:butt;stroke-linejoin:round;}
  </style>
 </defs>
 <g id="figure_1">
  
  <g id="axes_1">
   <g id="patch_2">
    <path d="
M104.832 633.37
L891.072 633.37
L891.072 14.1701
L104.832 14.1701
z
" style="fill:none;"/>
   </g>
   <g id="line2d_1">
    <path clip-path="url(#pd919645e29)" d="
M104.832 633.37
L108.783 624.129
L112.734 615.074
L120.636 597.512
L128.538 580.672
L136.44 564.536
L144.342 549.091
L152.243 534.32
L160.145 520.21
L168.047 506.745
L175.949 493.909
L183.851 481.689
L191.753 470.068
L199.655 459.031
L207.557 448.564
L215.459 438.652
L223.361 429.278
L231.263 420.429
L239.164 412.089
L247.066 404.244
L254.968 396.877
L262.87 389.974
L270.772 383.52
L278.674 377.499
L286.576 371.898
L294.478 366.699
L302.38 361.89
L310.282 357.453
L318.184 353.375
L326.085 349.64
L333.987 346.234
L341.889 343.14
L349.791 340.344
L357.693 337.831
L365.595 335.586
L373.497 333.594
L381.399 331.839
L389.301 330.306
L397.203 328.981
L405.105 327.849
L413.006 326.894
L420.908 326.101
L432.761 325.182
L444.614 324.543
L456.467 324.134
L472.271 323.856
L492.026 323.771
L523.633 323.684
L539.437 323.406
L551.29 322.997
L563.143 322.358
L574.996 321.44
L582.898 320.647
L590.799 319.691
L598.701 318.559
L606.603 317.234
L614.505 315.702
L622.407 313.947
L630.309 311.954
L638.211 309.709
L646.113 307.196
L654.015 304.4
L661.917 301.307
L669.819 297.9
L677.72 294.165
L685.622 290.087
L693.524 285.651
L701.426 280.841
L709.328 275.643
L717.23 270.041
L725.132 264.02
L733.034 257.566
L740.936 250.663
L748.838 243.297
L756.74 235.451
L764.641 227.111
L772.543 218.262
L780.445 208.889
L788.347 198.976
L796.249 188.509
L804.151 177.473
L812.053 165.852
L819.955 153.631
L827.857 140.795
L835.759 127.33
L843.661 113.22
L851.562 98.4496
L859.464 83.0042
L867.366 66.8687
L875.268 50.0279
L883.17 32.4667
L891.072 14.1701
L891.072 14.1701" style="fill:none;stroke:#0000ff;stroke-linecap:square;stroke-width:3.0;"/>
   </g>
   <g id="patch_3">
    <path d="
M104.832 14.1701
L891.072 14.1701" style="fill:none;stroke:#000000;stroke-linecap:square;stroke-linejoin:miter;"/>
   </g>
   <g id="patch_4">
    <path d="
M891.072 633.37
L891.072 14.1701" style="fill:none;stroke:#000000;stroke-linecap:square;stroke-linejoin:miter;"/>
   </g>
   <g id="patch_5">
    <path d="
M104.832 633.37
L891.072 633.37" style="fill:none;stroke:#000000;stroke-linecap:square;stroke-linejoin:miter;"/>
   </g>
   <g id="patch_6">
    <path d="
M104.832 633.37
L104.832 14.1701" style="fill:none;stroke:#000000;stroke-linecap:square;stroke-linejoin:miter;"/>
   </g>
   <g id="matplotlib.axis_1">
    <g id="xtick_1">
     <g id="line2d_2">
      <defs>
       <path d="
M0 0
L0 -4" id="m93b0483c22" style="stroke:#000000;stroke-width:0.5;"/>
      </defs>
      <g>
       <use style="stroke:#000000;stroke-width:0.5;" x="104.832" xlink:href="#m93b0483c22" y="633.370113417"/>
      </g>
     </g>
     <g id="line2d_3">
      <defs>
       <path d="
M0 0
L0 4" id="m741efc42ff" style="stroke:#000000;stroke-width:0.5;"/>
      </defs>
      <g>
       <use style="stroke:#000000;stroke-width:0.5;" x="104.832" xlink:href="#m741efc42ff" y="14.1701134175"/>
      </g>
     </g>
    </g>
    <g id="xtick_2">
     <g id="line2d_4">
      <g>
       <use style="stroke:#000000;stroke-width:0.5;" x="183.456" xlink:href="#m93b0483c22" y="633.370113417"/>
      </g>
     </g>
     <g id="line2d_5">
      <g>
       <use style="stroke:#000000;stroke-width:0.5;" x="183.456" xlink:href="#m741efc42ff" y="14.1701134175"/>
      </g>
     </g>
    </g>
    <g id="xtick_3">
     <g id="line2d_6">
      <g>
       <use style="stroke:#000000;stroke-width:0.5;" x="262.08" xlink:href="#m93b0483c22" y="633.370113417"/>
      </g>
     </g>
     <g id="line2d_7">
      <g>
       <use style="stroke:#000000;stroke-width:0.5;" x="262.08" xlink:href="#m741efc42ff" y="14.1701134175"/>
      </g>
     </g>
    </g>
    <g id="xtick_4">
     <g id="line2d_8">
      <g>
       <use style="stroke:#000000;stroke-width:0.5;" x="340.704" xlink:href="#m93b0483c22" y="633.370113417"/>
      </g>
     </g>
     <g id="line2d_9">
      <g>
       <use style="stroke:#000000;stroke-width:0.5;" x="340.704" xlink:href="#m741efc42ff" y="14.1701134175"/>
      </g>
     </g>
    </g>
    <g id="xtick_5">
     <g id="line2d_10">
      <g>
       <use style="stroke:#000000;stroke-width:0.5;" x="419.328" xlink:href="#m93b0483c22" y="633.370113417"/>
      </g>
     </g>
     <g id="line2d_11">
      <g>
       <use style="stroke:#000000;stroke-width:0.5;" x="419.328" xlink:href="#m741efc42ff" y="14.1701134175"/>
      </g>
     </g>
    </g>
    <g id="xtick_6">
     <g id="line2d_12">
      <g>
       <use style="stroke:#000000;stroke-width:0.5;" x="497.952" xlink:href="#m93b0483c22" y="633.370113417"/>
      </g>
     </g>
     <g id="line2d_13">
      <g>
       <use style="stroke:#000000;stroke-width:0.5;" x="497.952" xlink:href="#m741efc42ff" y="14.1701134175"/>
      </g>
     </g>
    </g>
    <g id="xtick_7">
     <g id="line2d_14">
      <g>
       <use style="stroke:#000000;stroke-width:0.5;" x="576.576" xlink:href="#m93b0483c22" y="633.370113417"/>
      </g>
     </g>
     <g id="line2d_15">
      <g>
       <use style="stroke:#000000;stroke-width:0.5;" x="576.576" xlink:href="#m741efc42ff" y="14.1701134175"/>
      </g>
     </g>
    </g>
    <g id="xtick_8">
     <g id="line2d_16">
      <g>
       <use style="stroke:#000000;stroke-width:0.5;" x="655.2" xlink:href="#m93b0483c22" y="633.370113417"/>
      </g>
     </g>
     <g id="line2d_17">
      <g>
       <use style="stroke:#000000;stroke-width:0.5;" x="655.2" xlink:href="#m741efc42ff" y="14.1701134175"/>
      </g>
     </g>
    </g>
    <g id="xtick_9">
     <g id="line2d_18">
      <g>
       <use style="stroke:#000000;stroke-width:0.5;" x="733.824" xlink:href="#m93b0483c22" y="633.370113417"/>
      </g>
     </g>
     <g id="line2d_19">
      <g>
       <use style="stroke:#000000;stroke-width:0.5;" x="733.824" xlink:href="#m741efc42ff" y="14.1701134175"/>
      </g>
     </g>
    </g>
    <g id="xtick_10">
     <g id="line2d_20">
      <g>
       <use style="stroke:#000000;stroke-width:0.5;" x="812.448" xlink:href="#m93b0483c22" y="633.370113417"/>
      </g>
     </g>
     <g id="line2d_21">
      <g>
       <use style="stroke:#000000;stroke-width:0.5;" x="812.448" xlink:href="#m741efc42ff" y="14.1701134175"/>
      </g>
     </g>
    </g>
    <g id="xtick_11">
     <g id="line2d_22">
      <g>
       <use style="stroke:#000000;stroke-width:0.5;" x="891.072" xlink:href="#m93b0483c22" y="633.370113417"/>
      </g>
     </g>
     <g id="line2d_23">
      <g>
       <use style="stroke:#000000;stroke-width:0.5;" x="891.072" xlink:href="#m741efc42ff" y="14.1701134175"/>
      </g>
     </g>
    </g>
   </g>
   <g id="matplotlib.axis_2">
    <g id="ytick_1">
     <g id="line2d_24">
      <defs>
       <path d="
M0 0
L4 0" id="m728421d6d4" style="stroke:#000000;stroke-width:0.5;"/>
      </defs>
      <g>
       <use style="stroke:#000000;stroke-width:0.5;" x="104.832" xlink:href="#m728421d6d4" y="633.370113417"/>
      </g>
     </g>
     <g id="line2d_25">
      <defs>
       <path d="
M0 0
L-4 0" id="mcb0005524f" style="stroke:#000000;stroke-width:0.5;"/>
      </defs>
      <g>
       <use style="stroke:#000000;stroke-width:0.5;" x="891.072" xlink:href="#mcb0005524f" y="633.370113417"/>
      </g>
     </g>
    </g>
    <g id="ytick_2">
     <g id="line2d_26">
      <g>
       <use style="stroke:#000000;stroke-width:0.5;" x="104.832" xlink:href="#m728421d6d4" y="571.450113417"/>
      </g>
     </g>
     <g id="line2d_27">
      <g>
       <use style="stroke:#000000;stroke-width:0.5;" x="891.072" xlink:href="#mcb0005524f" y="571.450113417"/>
      </g>
     </g>
    </g>
    <g id="ytick_3">
     <g id="line2d_28">
      <g>
       <use style="stroke:#000000;stroke-width:0.5;" x="104.832" xlink:href="#m728421d6d4" y="509.530113417"/>
      </g>
     </g>
     <g id="line2d_29">
      <g>
       <use style="stroke:#000000;stroke-width:0.5;" x="891.072" xlink:href="#mcb0005524f" y="509.530113417"/>
      </g>
     </g>
    </g>
    <g id="ytick_4">
     <g id="line2d_30">
      <g>
       <use style="stroke:#000000;stroke-width:0.5;" x="104.832" xlink:href="#m728421d6d4" y="447.610113417"/>
      </g>
     </g>
     <g id="line2d_31">
      <g>
       <use style="stroke:#000000;stroke-width:0.5;" x="891.072" xlink:href="#mcb0005524f" y="447.610113417"/>
      </g>
     </g>
    </g>
    <g id="ytick_5">
     <g id="line2d_32">
      <g>
       <use style="stroke:#000000;stroke-width:0.5;" x="104.832" xlink:href="#m728421d6d4" y="385.690113417"/>
      </g>
     </g>
     <g id="line2d_33">
      <g>
       <use style="stroke:#000000;stroke-width:0.5;" x="891.072" xlink:href="#mcb0005524f" y="385.690113417"/>
      </g>
     </g>
    </g>
    <g id="ytick_6">
     <g id="line2d_34">
      <g>
       <use style="stroke:#000000;stroke-width:0.5;" x="104.832" xlink:href="#m728421d6d4" y="323.770113417"/>
      </g>
     </g>
     <g id="line2d_35">
      <g>
       <use style="stroke:#000000;stroke-width:0.5;" x="891.072" xlink:href="#mcb0005524f" y="323.770113417"/>
      </g>
     </g>
    </g>
    <g id="ytick_7">
     <g id="line2d_36">
      <g>
       <use style="stroke:#000000;stroke-width:0.5;" x="104.832" xlink:href="#m728421d6d4" y="261.850113417"/>
      </g>
     </g>
     <g id="line2d_37">
      <g>
       <use style="stroke:#000000;stroke-width:0.5;" x="891.072" xlink:href="#mcb0005524f" y="261.850113417"/>
      </g>
     </g>
    </g>
    <g id="ytick_8">
     <g id="line2d_38">
      <g>
       <use style="stroke:#000000;stroke-width:0.5;" x="104.832" xlink:href="#m728421d6d4" y="199.930113417"/>
      </g>
     </g>
     <g id="line2d_39">
      <g>
       <use style="stroke:#000000;stroke-width:0.5;" x="891.072" xlink:href="#mcb0005524f" y="199.930113417"/>
      </g>
     </g>
    </g>
    <g id="ytick_9">
     <g id="line2d_40">
      <g>
       <use style="stroke:#000000;stroke-width:0.5;" x="104.832" xlink:href="#m728421d6d4" y="138.010113417"/>
      </g>
     </g>
     <g id="line2d_41">
      <g>
       <use style="stroke:#000000;stroke-width:0.5;" x="891.072" xlink:href="#mcb0005524f" y="138.010113417"/>
      </g>
     </g>
    </g>
    <g id="ytick_10">
     <g id="line2d_42">
      <g>
       <use style="stroke:#000000;stroke-width:0.5;" x="104.832" xlink:href="#m728421d6d4" y="76.0901134175"/>
      </g>
     </g>
     <g id="line2d_43">
      <g>
       <use style="stroke:#000000;stroke-width:0.5;" x="891.072" xlink:href="#mcb0005524f" y="76.0901134175"/>
      </g>
     </g>
    </g>
    <g id="ytick_11">
     <g id="line2d_44">
      <g>
       <use style="stroke:#000000;stroke-width:0.5;" x="104.832" xlink:href="#m728421d6d4" y="14.1701134175"/>
      </g>
     </g>
     <g id="line2d_45">
      <g>
       <use style="stroke:#000000;stroke-width:0.5;" x="891.072" xlink:href="#mcb0005524f" y="14.1701134175"/>
      </g>
     </g>
    </g>
   </g>
   <g id="text_1">
    <!-- -1.0 -->
    <defs>
     <path d="
M26.5938 63.3125
C26.5938 65.4062 26.5 65.5 25.0938 65.5
C21.2031 61.1875 15.2969 59.7969 9.70312 59.7969
C9.40625 59.7969 8.90625 59.7969 8.79688 59.6094
C8.70312 59.3906 8.70312 59.1719 8.70312 57
C11.7969 57 17 57.5938 21 59.9844
L21 7.20312
C21 3.6875 20.7969 2.5 12.2031 2.5
L9.20312 2.5
L9.20312 0
C14 0 19 0 23.7969 0
C28.5938 0 33.5938 0 38.4062 0
L38.4062 2.5
L35.4062 2.5
C26.7969 2.5 26.5938 3.59375 26.5938 7.15625
z
" id="CMR17-49"/>
     <path d="
M42 31.6406
C42 37.75 41.9062 48.125 37.7031 56.1094
C34 63.1094 28.0938 65.5938 22.9062 65.5938
C18.0938 65.5938 12 63.4062 8.20312 56.2031
C4.20312 48.7188 3.79688 39.4375 3.79688 31.6406
C3.79688 25.9531 3.90625 17.2812 7 9.67188
C11.2969 -0.609375 19 -2 22.9062 -2
C27.5 -2 34.5 -0.109375 38.5938 9.375
C41.5938 16.2812 42 24.3594 42 31.6406
M22.9062 -0.40625
C16.5 -0.40625 12.7031 5.07812 11.2969 12.6875
C10.2031 18.5625 10.2031 27.1562 10.2031 32.75
C10.2031 40.4375 10.2031 46.8281 11.5 52.9219
C13.4062 61.3906 19 64 22.9062 64
C27 64 32.2969 61.2969 34.2031 53.125
C35.5 47.4375 35.5938 40.7344 35.5938 32.75
C35.5938 26.25 35.5938 18.2656 34.4062 12.375
C32.2969 1.48438 26.4062 -0.40625 22.9062 -0.40625" id="CMR17-48"/>
     <path d="
M16.5938 4.07812
C16.5938 6.5625 14.5938 8.15625 12.5 8.15625
C10.5 8.15625 8.40625 6.5625 8.40625 4.07812
C8.40625 1.59375 10.4062 0 12.5 0
C14.5 0 16.5938 1.59375 16.5938 4.07812" id="CMR17-46"/>
     <path d="
M25.5 19
L25.5 23.375
L0.40625 23.375
L0.40625 19
z
" id="CMR17-45"/>
    </defs>
    <g transform="translate(81.4195221338 661.701320395)scale(0.32 -0.32)">
     <use transform="scale(0.996264009963)" xlink:href="#CMR17-45"/>
     <use transform="translate(30.0759663469 0.0)scale(0.996264009963)" xlink:href="#CMR17-49"/>
     <use transform="translate(75.766443464 0.0)scale(0.996264009963)" xlink:href="#CMR17-46"/>
     <use transform="translate(100.637501946 0.0)scale(0.996264009963)" xlink:href="#CMR17-48"/>
    </g>
   </g>
   <g id="text_2">
    <!-- -0.8 -->
    <defs>
     <path d="
M27.2031 35.375
C33.5 38.5625 39.9062 43.3281 39.9062 50.9844
C39.9062 60.0312 31.0938 65.2969 23 65.2969
C13.9062 65.2969 5.90625 58.7344 5.90625 49.6875
C5.90625 47.2031 6.5 42.9219 10.4062 39.1406
C11.4062 38.1562 15.5938 35.1719 18.2969 33.2812
C13.7969 30.9844 3.29688 25.5312 3.29688 14.5938
C3.29688 4.35938 13.0938 -2 22.7969 -2
C33.5 -2 42.5 5.65625 42.5 15.7969
C42.5 24.8438 36.4062 29.0312 32.4062 31.7031
z
M14.0938 44.125
C13.2969 44.625 9.29688 47.7031 9.29688 52.375
C9.29688 58.4375 15.5938 63 22.7969 63
C30.7031 63 36.5 57.4531 36.5 50.9844
C36.5 41.7344 26.0938 36.4688 25.5938 36.4688
C25.5 36.4688 25.4062 36.4688 24.5938 37.0781
z
M32.5 23.7344
C34 22.6406 38.7969 19.375 38.7969 13.2969
C38.7969 5.95312 31.4062 0.390625 23 0.390625
C13.9062 0.390625 7 6.84375 7 14.6875
C7 22.5469 13.0938 29.0938 20 32.1875
z
" id="CMR17-56"/>
    </defs>
    <g transform="translate(160.043522134 661.701320395)scale(0.32 -0.32)">
     <use transform="scale(0.996264009963)" xlink:href="#CMR17-45"/>
     <use transform="translate(30.0759663469 0.0)scale(0.996264009963)" xlink:href="#CMR17-48"/>
     <use transform="translate(75.766443464 0.0)scale(0.996264009963)" xlink:href="#CMR17-46"/>
     <use transform="translate(100.637501946 0.0)scale(0.996264009963)" xlink:href="#CMR17-56"/>
    </g>
   </g>
   <g id="text_3">
    <!-- -0.6 -->
    <defs>
     <path d="
M10.5938 34
C10.5938 57.6562 21.7969 63 28.2969 63
C30.4062 63 35.5 62.6406 37.5 59
C35.9062 59 32.9062 59 32.9062 55.5156
C32.9062 52.8281 35.0938 51.9219 36.5 51.9219
C37.4062 51.9219 40.0938 52.3125 40.0938 55.625
C40.0938 61.7812 35.0938 65.2969 28.2031 65.2969
C16.2969 65.2969 3.79688 52.9688 3.79688 31
C3.79688 3.95312 15.0938 -2 23.0938 -2
C32.7969 -2 42 6.67188 42 20.0469
C42 32.5156 33.9062 41.5938 23.7031 41.5938
C17.5938 41.5938 13.0938 37.6094 10.5938 30.625
z
M23.0938 0.390625
C10.7969 0.390625 10.7969 18.75 10.7969 22.4375
C10.7969 29.625 14.2031 40 23.5 40
C25.2031 40 30.0938 40 33.4062 33.125
C35.2031 29.2188 35.2031 25.1406 35.2031 20.1406
C35.2031 14.75 35.2031 10.7812 33.0938 6.78125
C30.9062 2.67188 27.7031 0.390625 23.0938 0.390625" id="CMR17-54"/>
    </defs>
    <g transform="translate(238.667522134 661.701320395)scale(0.32 -0.32)">
     <use transform="scale(0.996264009963)" xlink:href="#CMR17-45"/>
     <use transform="translate(30.0759663469 0.0)scale(0.996264009963)" xlink:href="#CMR17-48"/>
     <use transform="translate(75.766443464 0.0)scale(0.996264009963)" xlink:href="#CMR17-46"/>
     <use transform="translate(100.637501946 0.0)scale(0.996264009963)" xlink:href="#CMR17-54"/>
    </g>
   </g>
   <g id="text_4">
    <!-- -0.4 -->
    <defs>
     <path d="
M33.5938 64.3281
C33.5938 66.4062 33.5 66.5 31.7031 66.5
L2 19.5938
L2 17
L27.7969 17
L27.7969 7.14062
C27.7969 3.5 27.5938 2.5 20.5938 2.5
L18.7031 2.5
L18.7031 0
C21.9062 0 27.2969 0 30.7031 0
C34.0938 0 39.5 0 42.7031 0
L42.7031 2.5
L40.7969 2.5
C33.7969 2.5 33.5938 3.5 33.5938 7.14062
L33.5938 17
L43.7969 17
L43.7969 19.5938
L33.5938 19.5938
z
M28.0938 57.7656
L28.0938 19.5938
L4 19.5938
z
" id="CMR17-52"/>
    </defs>
    <g transform="translate(317.291522134 661.701320395)scale(0.32 -0.32)">
     <use transform="scale(0.996264009963)" xlink:href="#CMR17-45"/>
     <use transform="translate(30.0759663469 0.0)scale(0.996264009963)" xlink:href="#CMR17-48"/>
     <use transform="translate(75.766443464 0.0)scale(0.996264009963)" xlink:href="#CMR17-46"/>
     <use transform="translate(100.637501946 0.0)scale(0.996264009963)" xlink:href="#CMR17-52"/>
    </g>
   </g>
   <g id="text_5">
    <!-- -0.2 -->
    <defs>
     <path d="
M41.7031 15.4531
L39.9062 15.4531
C38.9062 8.375 38.0938 7.17188 37.7031 6.5625
C37.2031 5.76562 30 5.76562 28.5938 5.76562
L9.40625 5.76562
C13 9.67188 20 16.75 28.5 24.9531
C34.5938 30.7344 41.7031 37.5312 41.7031 47.4219
C41.7031 59.2188 32.2969 66 21.7969 66
C10.7969 66 4.09375 56.3125 4.09375 47.3438
C4.09375 43.4375 7 42.9375 8.20312 42.9375
C9.20312 42.9375 12.2031 43.5469 12.2031 47.0312
C12.2031 50.1094 9.59375 51 8.20312 51
C7.59375 51 7 50.9062 6.59375 50.7031
C8.5 59.2188 14.2969 63.4062 20.4062 63.4062
C29.0938 63.4062 34.7969 56.5156 34.7969 47.4219
C34.7969 38.7344 29.7031 31.25 24 24.75
L4.09375 2.28125
L4.09375 0
L39.2969 0
z
" id="CMR17-50"/>
    </defs>
    <g transform="translate(395.915522134 661.701320395)scale(0.32 -0.32)">
     <use transform="scale(0.996264009963)" xlink:href="#CMR17-45"/>
     <use transform="translate(30.0759663469 0.0)scale(0.996264009963)" xlink:href="#CMR17-48"/>
     <use transform="translate(75.766443464 0.0)scale(0.996264009963)" xlink:href="#CMR17-46"/>
     <use transform="translate(100.637501946 0.0)scale(0.996264009963)" xlink:href="#CMR17-50"/>
    </g>
   </g>
   <g id="text_6">
    <!-- 0.0 -->
    <g transform="translate(479.351676749 661.701320395)scale(0.32 -0.32)">
     <use transform="scale(0.996264009963)" xlink:href="#CMR17-48"/>
     <use transform="translate(45.6904771171 0.0)scale(0.996264009963)" xlink:href="#CMR17-46"/>
     <use transform="translate(70.5615355989 0.0)scale(0.996264009963)" xlink:href="#CMR17-48"/>
    </g>
   </g>
   <g id="text_7">
    <!-- 0.2 -->
    <g transform="translate(557.975676749 661.701320395)scale(0.32 -0.32)">
     <use transform="scale(0.996264009963)" xlink:href="#CMR17-48"/>
     <use transform="translate(45.6904771171 0.0)scale(0.996264009963)" xlink:href="#CMR17-46"/>
     <use transform="translate(70.5615355989 0.0)scale(0.996264009963)" xlink:href="#CMR17-50"/>
    </g>
   </g>
   <g id="text_8">
    <!-- 0.4 -->
    <g transform="translate(636.599676749 661.701320395)scale(0.32 -0.32)">
     <use transform="scale(0.996264009963)" xlink:href="#CMR17-48"/>
     <use transform="translate(45.6904771171 0.0)scale(0.996264009963)" xlink:href="#CMR17-46"/>
     <use transform="translate(70.5615355989 0.0)scale(0.996264009963)" xlink:href="#CMR17-52"/>
    </g>
   </g>
   <g id="text_9">
    <!-- 0.6 -->
    <g transform="translate(715.223676749 661.701320395)scale(0.32 -0.32)">
     <use transform="scale(0.996264009963)" xlink:href="#CMR17-48"/>
     <use transform="translate(45.6904771171 0.0)scale(0.996264009963)" xlink:href="#CMR17-46"/>
     <use transform="translate(70.5615355989 0.0)scale(0.996264009963)" xlink:href="#CMR17-54"/>
    </g>
   </g>
   <g id="text_10">
    <!-- 0.8 -->
    <g transform="translate(793.847676749 661.701320395)scale(0.32 -0.32)">
     <use transform="scale(0.996264009963)" xlink:href="#CMR17-48"/>
     <use transform="translate(45.6904771171 0.0)scale(0.996264009963)" xlink:href="#CMR17-46"/>
     <use transform="translate(70.5615355989 0.0)scale(0.996264009963)" xlink:href="#CMR17-56"/>
    </g>
   </g>
   <g id="text_11">
    <!-- 1.0 -->
    <g transform="translate(872.471676749 661.701320395)scale(0.32 -0.32)">
     <use transform="scale(0.996264009963)" xlink:href="#CMR17-49"/>
     <use transform="translate(45.6904771171 0.0)scale(0.996264009963)" xlink:href="#CMR17-46"/>
     <use transform="translate(70.5615355989 0.0)scale(0.996264009963)" xlink:href="#CMR17-48"/>
    </g>
   </g>
   <g id="text_12">
    <!-- -1.0 -->
    <g transform="translate(50.1446442676 627.16909356)scale(0.32 -0.32)">
     <use transform="scale(0.996264009963)" xlink:href="#CMR17-45"/>
     <use transform="translate(30.0759663469 0.0)scale(0.996264009963)" xlink:href="#CMR17-49"/>
     <use transform="translate(75.766443464 0.0)scale(0.996264009963)" xlink:href="#CMR17-46"/>
     <use transform="translate(100.637501946 0.0)scale(0.996264009963)" xlink:href="#CMR17-48"/>
    </g>
   </g>
   <g id="text_13">
    <!-- -0.8 -->
    <g transform="translate(50.1446442676 579.419206978)scale(0.32 -0.32)">
     <use transform="scale(0.996264009963)" xlink:href="#CMR17-45"/>
     <use transform="translate(30.0759663469 0.0)scale(0.996264009963)" xlink:href="#CMR17-48"/>
     <use transform="translate(75.766443464 0.0)scale(0.996264009963)" xlink:href="#CMR17-46"/>
     <use transform="translate(100.637501946 0.0)scale(0.996264009963)" xlink:href="#CMR17-56"/>
    </g>
   </g>
   <g id="text_14">
    <!-- -0.6 -->
    <g transform="translate(50.1446442676 517.499206978)scale(0.32 -0.32)">
     <use transform="scale(0.996264009963)" xlink:href="#CMR17-45"/>
     <use transform="translate(30.0759663469 0.0)scale(0.996264009963)" xlink:href="#CMR17-48"/>
     <use transform="translate(75.766443464 0.0)scale(0.996264009963)" xlink:href="#CMR17-46"/>
     <use transform="translate(100.637501946 0.0)scale(0.996264009963)" xlink:href="#CMR17-54"/>
    </g>
   </g>
   <g id="text_15">
    <!-- -0.4 -->
    <g transform="translate(50.1446442676 455.579206978)scale(0.32 -0.32)">
     <use transform="scale(0.996264009963)" xlink:href="#CMR17-45"/>
     <use transform="translate(30.0759663469 0.0)scale(0.996264009963)" xlink:href="#CMR17-48"/>
     <use transform="translate(75.766443464 0.0)scale(0.996264009963)" xlink:href="#CMR17-46"/>
     <use transform="translate(100.637501946 0.0)scale(0.996264009963)" xlink:href="#CMR17-52"/>
    </g>
   </g>
   <g id="text_16">
    <!-- -0.2 -->
    <g transform="translate(50.1446442676 393.659206978)scale(0.32 -0.32)">
     <use transform="scale(0.996264009963)" xlink:href="#CMR17-45"/>
     <use transform="translate(30.0759663469 0.0)scale(0.996264009963)" xlink:href="#CMR17-48"/>
     <use transform="translate(75.766443464 0.0)scale(0.996264009963)" xlink:href="#CMR17-46"/>
     <use transform="translate(100.637501946 0.0)scale(0.996264009963)" xlink:href="#CMR17-50"/>
    </g>
   </g>
   <g id="text_17">
    <!-- 0.0 -->
    <g transform="translate(59.7689534986 331.739206978)scale(0.32 -0.32)">
     <use transform="scale(0.996264009963)" xlink:href="#CMR17-48"/>
     <use transform="translate(45.6904771171 0.0)scale(0.996264009963)" xlink:href="#CMR17-46"/>
     <use transform="translate(70.5615355989 0.0)scale(0.996264009963)" xlink:href="#CMR17-48"/>
    </g>
   </g>
   <g id="text_18">
    <!-- 0.2 -->
    <g transform="translate(59.7689534986 269.819206978)scale(0.32 -0.32)">
     <use transform="scale(0.996264009963)" xlink:href="#CMR17-48"/>
     <use transform="translate(45.6904771171 0.0)scale(0.996264009963)" xlink:href="#CMR17-46"/>
     <use transform="translate(70.5615355989 0.0)scale(0.996264009963)" xlink:href="#CMR17-50"/>
    </g>
   </g>
   <g id="text_19">
    <!-- 0.4 -->
    <g transform="translate(59.7689534986 207.899206978)scale(0.32 -0.32)">
     <use transform="scale(0.996264009963)" xlink:href="#CMR17-48"/>
     <use transform="translate(45.6904771171 0.0)scale(0.996264009963)" xlink:href="#CMR17-46"/>
     <use transform="translate(70.5615355989 0.0)scale(0.996264009963)" xlink:href="#CMR17-52"/>
    </g>
   </g>
   <g id="text_20">
    <!-- 0.6 -->
    <g transform="translate(59.7689534986 145.979206978)scale(0.32 -0.32)">
     <use transform="scale(0.996264009963)" xlink:href="#CMR17-48"/>
     <use transform="translate(45.6904771171 0.0)scale(0.996264009963)" xlink:href="#CMR17-46"/>
     <use transform="translate(70.5615355989 0.0)scale(0.996264009963)" xlink:href="#CMR17-54"/>
    </g>
   </g>
   <g id="text_21">
    <!-- 0.8 -->
    <g transform="translate(59.7689534986 84.0592069777)scale(0.32 -0.32)">
     <use transform="scale(0.996264009963)" xlink:href="#CMR17-48"/>
     <use transform="translate(45.6904771171 0.0)scale(0.996264009963)" xlink:href="#CMR17-46"/>
     <use transform="translate(70.5615355989 0.0)scale(0.996264009963)" xlink:href="#CMR17-56"/>
    </g>
   </g>
   <g id="text_22">
    <!-- 1.0 -->
    <g transform="translate(59.7689534986 22.1392069777)scale(0.32 -0.32)">
     <use transform="scale(0.996264009963)" xlink:href="#CMR17-49"/>
     <use transform="translate(45.6904771171 0.0)scale(0.996264009963)" xlink:href="#CMR17-46"/>
     <use transform="translate(70.5615355989 0.0)scale(0.996264009963)" xlink:href="#CMR17-48"/>
    </g>
   </g>
   <g id="text_23">
    <!-- $x$ -->
    <defs>
     <path d="
M47.4062 40.7188
C44.2031 40.1094 43 37.7188 43 35.8281
C43 33.4219 44.9062 32.625 46.2969 32.625
C49.2969 32.625 51.4062 35.2188 51.4062 37.9219
C51.4062 42.1094 46.5938 44 42.4062 44
C36.2969 44 32.9062 38.0156 32 36.125
C29.7031 44 23.5 44 21.7031 44
C11.5 44 6.09375 30.9375 6.09375 28.7344
C6.09375 28.3438 6.5 27.8438 7.20312 27.8438
C8 27.8438 8.20312 28.4375 8.40625 28.8438
C11.7969 39.9219 18.5 42.0156 21.4062 42.0156
C25.9062 42.0156 26.7969 37.8125 26.7969 35.4219
C26.7969 33.2344 26.2031 30.9375 25 26.1406
L21.5938 12.4688
C20.0938 6.48438 17.2031 1 11.9062 1
C11.4062 1 8.90625 1 6.79688 2.29688
C10.4062 3 11.2031 5.98438 11.2031 7.1875
C11.2031 9.1875 9.70312 10.375 7.79688 10.375
C5.40625 10.375 2.79688 8.28125 2.79688 5.09375
C2.79688 0.890625 7.5 -1 11.7969 -1
C16.5938 -1 20 2.79688 22.0938 6.89062
C23.7031 1 28.7031 -1 32.4062 -1
C42.5938 -1 48 12.0781 48 14.2656
C48 14.7656 47.5938 15.1719 47 15.1719
C46.0938 15.1719 46 14.6719 45.7031 13.875
C43 5.09375 37.2031 1 32.7031 1
C29.2031 1 27.2969 3.59375 27.2969 7.6875
C27.2969 9.875 27.7031 11.4688 29.2969 18.0625
L32.7969 31.625
C34.2969 37.625 37.7031 42.0156 42.2969 42.0156
C42.5 42.0156 45.2969 42.0156 47.4062 40.7188" id="CMMI12-120"/>
    </defs>
    <g transform="translate(487.973869284 708.953969879)scale(0.36 -0.36)">
     <use transform="scale(0.996264009963)" xlink:href="#CMMI12-120"/>
    </g>
   </g>
   <g id="text_24">
    <!-- $y$ -->
    <defs>
     <path d="
M26.2969 -10.9375
C23.5938 -14.6719 19.7031 -18 14.7969 -18
C13.5938 -18 8.79688 -18 7.29688 -13.8906
C7.59375 -13.9844 8.09375 -13.9844 8.29688 -13.9844
C11.2969 -13.9844 13.2969 -11.3906 13.2969 -9.09375
C13.2969 -6.79688 11.4062 -6 9.90625 -6
C8.29688 -6 4.79688 -7.15625 4.79688 -11.8594
C4.79688 -16.7344 9.09375 -20.0938 14.7969 -20.0938
C24.7969 -20.0938 34.9062 -10.9375 37.7031 0.09375
L47.5 38.8281
C47.5938 39.3281 47.7969 39.9375 47.7969 40.5312
C47.7969 42.0156 46.5938 43.0156 45.0938 43.0156
C44.2031 43.0156 42.0938 42.6094 41.2969 39.6094
L33.9062 10.2812
C33.4062 8.48438 33.4062 8.28125 32.5938 7.1875
C30.5938 4.39062 27.2969 1 22.5 1
C16.9062 1 16.4062 6.48438 16.4062 9.1875
C16.4062 14.875 19.0938 22.5469 21.7969 29.7344
C22.9062 32.625 23.5 34.0312 23.5 36.0156
C23.5 40.2188 20.5 44 15.5938 44
C6.40625 44 2.70312 29.5312 2.70312 28.7344
C2.70312 28.3438 3.09375 27.8438 3.79688 27.8438
C4.70312 27.8438 4.79688 28.2344 5.20312 29.6406
C7.59375 38.0156 11.4062 42.0156 15.2969 42.0156
C16.2031 42.0156 17.9062 42.0156 17.9062 38.7188
C17.9062 36.125 16.7969 33.2344 15.2969 29.4375
C10.4062 16.3594 10.4062 13.0781 10.4062 10.6719
C10.4062 1.20312 17.2031 -1 22.2031 -1
C25.0938 -1 28.7031 -0.09375 32.2031 3.59375
L32.2969 3.5
C30.7969 -2.29688 29.7969 -6.125 26.2969 -10.9375" id="CMMI12-121"/>
    </defs>
    <g transform="translate(24.9066002491 332.331666042)rotate(-90.0)scale(0.36 -0.36)">
     <use transform="scale(0.996264009963)" xlink:href="#CMMI12-121"/>
    </g>
   </g>
  </g>
 </g>
 <defs>
  <clipPath id="pd919645e29">
   <rect height="619.2" width="786.24" x="104.832" y="14.1701134175"/>
  </clipPath>
 </defs>
</svg>
